<?xml version="1.0" encoding="iso-8859-1"?>
<!-- Generator: Adobe Illustrator 18.1.1, SVG Export Plug-In . SVG Version: 6.00 Build 0)  -->
<svg xmlns="http://www.w3.org/2000/svg" xmlns:xlink="http://www.w3.org/1999/xlink" version="1.1" id="Capa_1" x="0px" y="0px" viewBox="0 0 48 48" style="enable-background:new 0 0 48 48;" xml:space="preserve" width="512px" height="512px">
<g>
	<g>
		<path d="M33.967,6.06l-1.03-4.119C32.669,0.869,31.557,0,30.452,0H17.548c-1.105,0-2.217,0.869-2.485,1.94    l-1.03,4.119C13.765,7.131,12.652,8,11.548,8H6.5C5.395,8,4.579,8.892,4.676,9.992l0.266,3.015c0.097,1.1,1.071,1.992,2.176,1.992    h33.765c1.105,0,2.079-0.892,2.176-1.992l0.266-3.015C43.421,8.892,42.605,8,41.5,8h-5.048C35.348,8,34.235,7.131,33.967,6.06z     M21.452,5h5.096c1.105,0,2.168,0.672,2.375,1.5S28.403,8,27.298,8h-6.596c-1.105,0-1.832-0.672-1.625-1.5S20.348,5,21.452,5z" fill="#91DC5A"/>
		<path d="M9.5,48h29c1.105,0,2.079-0.892,2.176-1.992l0.001-0.015c0.097-1.1-0.72-1.992-1.824-1.992H9.147    c-1.105,0-1.921,0.892-1.824,1.992l0.001,0.015C7.421,47.108,8.395,48,9.5,48z" fill="#91DC5A"/>
		<path d="M9.147,41h29.706c1.105,0,2.079-0.892,2.176-1.992l1.678-19.015c0.097-1.1-0.72-1.992-1.824-1.992    H7.118c-1.105,0-1.921,0.892-1.824,1.992l1.678,19.015C7.068,40.108,8.042,41,9.147,41z" fill="#91DC5A"/>
	</g>
</g>
<g>
</g>
<g>
</g>
<g>
</g>
<g>
</g>
<g>
</g>
<g>
</g>
<g>
</g>
<g>
</g>
<g>
</g>
<g>
</g>
<g>
</g>
<g>
</g>
<g>
</g>
<g>
</g>
<g>
</g>
</svg>
